%YAML 1.1
%TAG !u! tag:unity3d.com,2011:
--- !u!114 &11400000
MonoBehaviour:
  m_ObjectHideFlags: 0
  m_PrefabParentObject: {fileID: 0}
  m_PrefabInternal: {fileID: 0}
  m_GameObject: {fileID: 0}
  m_Enabled: 1
  m_EditorHideFlags: 0
  m_Script: {fileID: 11500000, guid: 535f8e525ff367c4ba67961e201a05ed, type: 3}
  m_Name: Alt-Soils_8
  m_EditorClassIdentifier: 
  m_Sprite: {fileID: 0}
  m_Color: {r: 1, g: 1, b: 1, a: 1}
  m_Transform:
    e00: 1
    e01: 0
    e02: 0
    e03: 0
    e10: 0
    e11: 1
    e12: 0
    e13: 0
    e20: 0
    e21: 0
    e22: 1
    e23: 0
    e30: 0
    e31: 0
    e32: 0
    e33: 1
  m_InstancedGameObject: {fileID: 0}
  m_Flags: 1
  m_ColliderType: 1
  m_Sprites:
  - {fileID: 21300016, guid: 214f731dfff60594ca162278fa96e49f, type: 3}
  - {fileID: 21300018, guid: 214f731dfff60594ca162278fa96e49f, type: 3}
  - {fileID: 21300020, guid: 214f731dfff60594ca162278fa96e49f, type: 3}
